%YAML 1.1
%TAG !u! tag:unity3d.com,2011:
--- !u!1001 &2663517724501756389
PrefabInstance:
  m_ObjectHideFlags: 0
  serializedVersion: 2
  m_Modification:
    m_TransformParent: {fileID: 0}
    m_Modifications:
    - target: {fileID: 263485041573106090, guid: 2f330d48b1dc71f41a3f843497b5687f,
        type: 3}
      propertyPath: m_Name
      value: Spine District 10
      objectReference: {fileID: 0}
    - target: {fileID: 31514583355305879, guid: 2f330d48b1dc71f41a3f843497b5687f,
        type: 3}
      propertyPath: m_LocalPosition.x
      value: 0
      objectReference: {fileID: 0}
    - target: {fileID: 31514583355305879, guid: 2f330d48b1dc71f41a3f843497b5687f,
        type: 3}
      propertyPath: m_LocalPosition.y
      value: 0
      objectReference: {fileID: 0}
    - target: {fileID: 31514583355305879, guid: 2f330d48b1dc71f41a3f843497b5687f,
        type: 3}
      propertyPath: m_LocalPosition.z
      value: 0
      objectReference: {fileID: 0}
    - target: {fileID: 31514583355305879, guid: 2f330d48b1dc71f41a3f843497b5687f,
        type: 3}
      propertyPath: m_LocalRotation.x
      value: 0
      objectReference: {fileID: 0}
    - target: {fileID: 31514583355305879, guid: 2f330d48b1dc71f41a3f843497b5687f,
        type: 3}
      propertyPath: m_LocalRotation.y
      value: 0
      objectReference: {fileID: 0}
    - target: {fileID: 31514583355305879, guid: 2f330d48b1dc71f41a3f843497b5687f,
        type: 3}
      propertyPath: m_LocalRotation.z
      value: 0
      objectReference: {fileID: 0}
    - target: {fileID: 31514583355305879, guid: 2f330d48b1dc71f41a3f843497b5687f,
        type: 3}
      propertyPath: m_LocalRotation.w
      value: 1
      objectReference: {fileID: 0}
    - target: {fileID: 31514583355305879, guid: 2f330d48b1dc71f41a3f843497b5687f,
        type: 3}
      propertyPath: m_RootOrder
      value: 0
      objectReference: {fileID: 0}
    - target: {fileID: 31514583355305879, guid: 2f330d48b1dc71f41a3f843497b5687f,
        type: 3}
      propertyPath: m_LocalEulerAnglesHint.x
      value: 0
      objectReference: {fileID: 0}
    - target: {fileID: 31514583355305879, guid: 2f330d48b1dc71f41a3f843497b5687f,
        type: 3}
      propertyPath: m_LocalEulerAnglesHint.y
      value: 0
      objectReference: {fileID: 0}
    - target: {fileID: 31514583355305879, guid: 2f330d48b1dc71f41a3f843497b5687f,
        type: 3}
      propertyPath: m_LocalEulerAnglesHint.z
      value: 0
      objectReference: {fileID: 0}
    - target: {fileID: 31514583355305879, guid: 2f330d48b1dc71f41a3f843497b5687f,
        type: 3}
      propertyPath: m_AnchoredPosition.x
      value: 0
      objectReference: {fileID: 0}
    - target: {fileID: 31514583355305879, guid: 2f330d48b1dc71f41a3f843497b5687f,
        type: 3}
      propertyPath: m_AnchoredPosition.y
      value: 0
      objectReference: {fileID: 0}
    - target: {fileID: 31514583355305879, guid: 2f330d48b1dc71f41a3f843497b5687f,
        type: 3}
      propertyPath: m_SizeDelta.x
      value: 100
      objectReference: {fileID: 0}
    - target: {fileID: 31514583355305879, guid: 2f330d48b1dc71f41a3f843497b5687f,
        type: 3}
      propertyPath: m_SizeDelta.y
      value: 100
      objectReference: {fileID: 0}
    - target: {fileID: 31514583355305879, guid: 2f330d48b1dc71f41a3f843497b5687f,
        type: 3}
      propertyPath: m_AnchorMin.x
      value: 0.5
      objectReference: {fileID: 0}
    - target: {fileID: 31514583355305879, guid: 2f330d48b1dc71f41a3f843497b5687f,
        type: 3}
      propertyPath: m_AnchorMin.y
      value: 0.5
      objectReference: {fileID: 0}
    - target: {fileID: 31514583355305879, guid: 2f330d48b1dc71f41a3f843497b5687f,
        type: 3}
      propertyPath: m_AnchorMax.x
      value: 0.5
      objectReference: {fileID: 0}
    - target: {fileID: 31514583355305879, guid: 2f330d48b1dc71f41a3f843497b5687f,
        type: 3}
      propertyPath: m_AnchorMax.y
      value: 0.5
      objectReference: {fileID: 0}
    - target: {fileID: 31514583355305879, guid: 2f330d48b1dc71f41a3f843497b5687f,
        type: 3}
      propertyPath: m_Pivot.x
      value: 0.5
      objectReference: {fileID: 0}
    - target: {fileID: 31514583355305879, guid: 2f330d48b1dc71f41a3f843497b5687f,
        type: 3}
      propertyPath: m_Pivot.y
      value: 0.5
      objectReference: {fileID: 0}
    - target: {fileID: 3042133855757711436, guid: 2f330d48b1dc71f41a3f843497b5687f,
        type: 3}
      propertyPath: skeletonDataAsset
      value: 
      objectReference: {fileID: 11400000, guid: d8fbd93d29549294c84797ac0cd0ea0f,
        type: 2}
    m_RemovedComponents: []
  m_SourcePrefab: {fileID: 100100000, guid: 2f330d48b1dc71f41a3f843497b5687f, type: 3}
