%YAML 1.1
%TAG !u! tag:unity3d.com,2011:
--- !u!114 &11400000
MonoBehaviour:
  m_ObjectHideFlags: 0
  m_CorrespondingSourceObject: {fileID: 0}
  m_PrefabInstance: {fileID: 0}
  m_PrefabAsset: {fileID: 0}
  m_GameObject: {fileID: 0}
  m_Enabled: 1
  m_EditorHideFlags: 0
  m_Script: {fileID: 11500000, guid: c3478be301e86b74b821fcf23078b675, type: 3}
  m_Name: renov_0152
  m_EditorClassIdentifier: 
  Id: renov_0152
  costBase: 50
  costExponent: 114
  transactionType: Coins
  benefitTarget: district_009
  benefitType: Discount
  benefitModifier: 0.99999
  targetCount: 14
