%YAML 1.1
%TAG !u! tag:unity3d.com,2011:
--- !u!114 &11400000
MonoBehaviour:
  m_ObjectHideFlags: 0
  m_CorrespondingSourceObject: {fileID: 0}
  m_PrefabInstance: {fileID: 0}
  m_PrefabAsset: {fileID: 0}
  m_GameObject: {fileID: 0}
  m_Enabled: 1
  m_EditorHideFlags: 0
  m_Script: {fileID: 11500000, guid: 86a92e0b865d4a3d9a02f7c9a0da95f3, type: 3}
  m_Name: Mission_002
  m_EditorClassIdentifier: 
  icon: {fileID: 0}
  missionDescriptionKey: Collect Farm District
  target:
    type: 10
    typeId: district_001
    target: 3
  reward:
    rewardType: 1
    rewardValueAmount: 50
    rewardValueString: Test
  nextTutorial: {fileID: -2483965004736037881, guid: 1ed00b1902c785a4ab45a2457e69c744,
    type: 3}
  onComplete:
    m_PersistentCalls:
      m_Calls: []
    m_TypeName: UnityEngine.Events.UnityEvent, UnityEngine.CoreModule, Version=0.0.0.0,
      Culture=neutral, PublicKeyToken=null
