%YAML 1.1
%TAG !u! tag:unity3d.com,2011:
--- !u!114 &11400000
MonoBehaviour:
  m_ObjectHideFlags: 0
  m_CorrespondingSourceObject: {fileID: 0}
  m_PrefabInstance: {fileID: 0}
  m_PrefabAsset: {fileID: 0}
  m_GameObject: {fileID: 0}
  m_Enabled: 1
  m_EditorHideFlags: 0
  m_Script: {fileID: 11500000, guid: 3babcd6f0cf5dd746b6b24613e3e621f, type: 3}
  m_Name: store_002
  m_EditorClassIdentifier: 
  Id: store_002
  price: 25
  benefitType: TimeWarp
  benefitModifier: 7
