%YAML 1.1
%TAG !u! tag:unity3d.com,2011:
--- !u!114 &11400000
MonoBehaviour:
  m_ObjectHideFlags: 0
  m_CorrespondingSourceObject: {fileID: 0}
  m_PrefabInstance: {fileID: 0}
  m_PrefabAsset: {fileID: 0}
  m_GameObject: {fileID: 0}
  m_Enabled: 1
  m_EditorHideFlags: 0
  m_Script: {fileID: 11500000, guid: 90ab7cfe7cf87b64bb78ce7c6e17f0cc, type: 3}
  m_Name: Claim Mission Reward
  m_EditorClassIdentifier: 
  sequences:
  - type: 0
    dialogue:
      actor: {fileID: 11400000, guid: 89097dd9b885a6f498eb4ed6d3c774c1, type: 2}
      alignment: 1
      speed: 25
      text: Here is your reward for being a good boy.
      useBackground: 1
    fade:
      fadeType: 0
      fadeColor: {r: 1, g: 1, b: 1, a: 1}
      duration: 0
    camera:
      cameraTarget: 0
      isFromBottom: 0
      duration: 0
    showGameObject:
      prefab: {fileID: 0}
      useDuration: 0
      duration: 0
      waitForNextSequence: 1
    wait:
      useDuration: 0
      duration: 0
    response:
      response:
        m_PersistentCalls:
          m_Calls: []
        m_TypeName: UnityEngine.Events.UnityEvent, UnityEngine.CoreModule, Version=0.0.0.0,
          Culture=neutral, PublicKeyToken=null
    sfx:
      sfxName: 
    finger:
      target: {fileID: 0}
      layerName: 
      layerOrder: 0
