%YAML 1.1
%TAG !u! tag:unity3d.com,2011:
--- !u!114 &11400000
MonoBehaviour:
  m_ObjectHideFlags: 0
  m_CorrespondingSourceObject: {fileID: 0}
  m_PrefabInstance: {fileID: 0}
  m_PrefabAsset: {fileID: 0}
  m_GameObject: {fileID: 0}
  m_Enabled: 1
  m_EditorHideFlags: 0
  m_Script: {fileID: 11500000, guid: 21c335818e452b44e813fd7a7e7b32ab, type: 3}
  m_Name: mil_007
  m_EditorClassIdentifier: 
  Id: mil_007
  district: district_001
  levelReq: 500
  benefitTarget: district_001
  benefitType: Profit
  benefitModifier: 4
