%YAML 1.1
%TAG !u! tag:unity3d.com,2011:
--- !u!114 &11400000
MonoBehaviour:
  m_ObjectHideFlags: 0
  m_CorrespondingSourceObject: {fileID: 0}
  m_PrefabInstance: {fileID: 0}
  m_PrefabAsset: {fileID: 0}
  m_GameObject: {fileID: 0}
  m_Enabled: 1
  m_EditorHideFlags: 0
  m_Script: {fileID: 11500000, guid: f99e4cb6d22394f438d84823c1fbebad, type: 3}
  m_Name: mayor_0003
  m_EditorClassIdentifier: 
  Id: mayor_0003
  costBase: 100000
  costExponent: 0
  transactionType: Coins
  benefitTarget: district_003
  benefitType: Auto
  benefitModifier: 1
  targetCount: 0
