%YAML 1.1
%TAG !u! tag:unity3d.com,2011:
--- !u!114 &11400000
MonoBehaviour:
  m_ObjectHideFlags: 0
  m_CorrespondingSourceObject: {fileID: 0}
  m_PrefabInstance: {fileID: 0}
  m_PrefabAsset: {fileID: 0}
  m_GameObject: {fileID: 0}
  m_Enabled: 1
  m_EditorHideFlags: 0
  m_Script: {fileID: 11500000, guid: 5eb3724f2d1fd224da982e4b329a56b2, type: 3}
  m_Name: level_013
  m_EditorClassIdentifier: 
  Id: level_013
  costBase: 1
  costExponent: 186
  castleID: castle_013
  coinReward: 43200
  gemReward: 25
