%YAML 1.1
%TAG !u! tag:unity3d.com,2011:
--- !u!114 &11400000
MonoBehaviour:
  m_ObjectHideFlags: 0
  m_CorrespondingSourceObject: {fileID: 0}
  m_PrefabInstance: {fileID: 0}
  m_PrefabAsset: {fileID: 0}
  m_GameObject: {fileID: 0}
  m_Enabled: 1
  m_EditorHideFlags: 0
  m_Script: {fileID: 11500000, guid: 214748c193794441bed0be0756fffafd, type: 3}
  m_Name: King - Normal
  m_EditorClassIdentifier: 
  name: King
  icon: {fileID: 21300000, guid: 450c0683d4144394a9604fd202d75031, type: 3}
