%YAML 1.1
%TAG !u! tag:unity3d.com,2011:
--- !u!1001 &7364507740270740961
PrefabInstance:
  m_ObjectHideFlags: 0
  serializedVersion: 2
  m_Modification:
    m_TransformParent: {fileID: 0}
    m_Modifications:
    - target: {fileID: 3243070430688028845, guid: bba47fb31403e7f479574a03b19a4b29,
        type: 3}
      propertyPath: m_Name
      value: Mayor Item View 3
      objectReference: {fileID: 0}
    - target: {fileID: 3243070430688028844, guid: bba47fb31403e7f479574a03b19a4b29,
        type: 3}
      propertyPath: m_LocalPosition.x
      value: 0
      objectReference: {fileID: 0}
    - target: {fileID: 3243070430688028844, guid: bba47fb31403e7f479574a03b19a4b29,
        type: 3}
      propertyPath: m_LocalPosition.y
      value: 0
      objectReference: {fileID: 0}
    - target: {fileID: 3243070430688028844, guid: bba47fb31403e7f479574a03b19a4b29,
        type: 3}
      propertyPath: m_LocalPosition.z
      value: 0
      objectReference: {fileID: 0}
    - target: {fileID: 3243070430688028844, guid: bba47fb31403e7f479574a03b19a4b29,
        type: 3}
      propertyPath: m_LocalRotation.x
      value: 0
      objectReference: {fileID: 0}
    - target: {fileID: 3243070430688028844, guid: bba47fb31403e7f479574a03b19a4b29,
        type: 3}
      propertyPath: m_LocalRotation.y
      value: 0
      objectReference: {fileID: 0}
    - target: {fileID: 3243070430688028844, guid: bba47fb31403e7f479574a03b19a4b29,
        type: 3}
      propertyPath: m_LocalRotation.z
      value: 0
      objectReference: {fileID: 0}
    - target: {fileID: 3243070430688028844, guid: bba47fb31403e7f479574a03b19a4b29,
        type: 3}
      propertyPath: m_LocalRotation.w
      value: 1
      objectReference: {fileID: 0}
    - target: {fileID: 3243070430688028844, guid: bba47fb31403e7f479574a03b19a4b29,
        type: 3}
      propertyPath: m_RootOrder
      value: 0
      objectReference: {fileID: 0}
    - target: {fileID: 3243070430688028844, guid: bba47fb31403e7f479574a03b19a4b29,
        type: 3}
      propertyPath: m_LocalEulerAnglesHint.x
      value: 0
      objectReference: {fileID: 0}
    - target: {fileID: 3243070430688028844, guid: bba47fb31403e7f479574a03b19a4b29,
        type: 3}
      propertyPath: m_LocalEulerAnglesHint.y
      value: 0
      objectReference: {fileID: 0}
    - target: {fileID: 3243070430688028844, guid: bba47fb31403e7f479574a03b19a4b29,
        type: 3}
      propertyPath: m_LocalEulerAnglesHint.z
      value: 0
      objectReference: {fileID: 0}
    - target: {fileID: 3243070430688028844, guid: bba47fb31403e7f479574a03b19a4b29,
        type: 3}
      propertyPath: m_AnchoredPosition.x
      value: 228.845
      objectReference: {fileID: 0}
    - target: {fileID: 3243070430688028844, guid: bba47fb31403e7f479574a03b19a4b29,
        type: 3}
      propertyPath: m_AnchoredPosition.y
      value: -323.4
      objectReference: {fileID: 0}
    - target: {fileID: 3243070430688028844, guid: bba47fb31403e7f479574a03b19a4b29,
        type: 3}
      propertyPath: m_SizeDelta.x
      value: 457.69
      objectReference: {fileID: 0}
    - target: {fileID: 3243070430688028844, guid: bba47fb31403e7f479574a03b19a4b29,
        type: 3}
      propertyPath: m_SizeDelta.y
      value: 604.8
      objectReference: {fileID: 0}
    - target: {fileID: 3243070430688028844, guid: bba47fb31403e7f479574a03b19a4b29,
        type: 3}
      propertyPath: m_AnchorMin.x
      value: 0
      objectReference: {fileID: 0}
    - target: {fileID: 3243070430688028844, guid: bba47fb31403e7f479574a03b19a4b29,
        type: 3}
      propertyPath: m_AnchorMin.y
      value: 1
      objectReference: {fileID: 0}
    - target: {fileID: 3243070430688028844, guid: bba47fb31403e7f479574a03b19a4b29,
        type: 3}
      propertyPath: m_AnchorMax.x
      value: 0
      objectReference: {fileID: 0}
    - target: {fileID: 3243070430688028844, guid: bba47fb31403e7f479574a03b19a4b29,
        type: 3}
      propertyPath: m_AnchorMax.y
      value: 1
      objectReference: {fileID: 0}
    - target: {fileID: 3243070430688028844, guid: bba47fb31403e7f479574a03b19a4b29,
        type: 3}
      propertyPath: m_Pivot.x
      value: 0.5
      objectReference: {fileID: 0}
    - target: {fileID: 3243070430688028844, guid: bba47fb31403e7f479574a03b19a4b29,
        type: 3}
      propertyPath: m_Pivot.y
      value: 0.5
      objectReference: {fileID: 0}
    - target: {fileID: 6372152167673118482, guid: bba47fb31403e7f479574a03b19a4b29,
        type: 3}
      propertyPath: districtIndex
      value: 2
      objectReference: {fileID: 0}
    - target: {fileID: 3243070430561815178, guid: bba47fb31403e7f479574a03b19a4b29,
        type: 3}
      propertyPath: skeletonDataAsset
      value: 
      objectReference: {fileID: 11400000, guid: 4efd0260ba4851d4f92b7754489df6a9,
        type: 2}
    m_RemovedComponents: []
  m_SourcePrefab: {fileID: 100100000, guid: bba47fb31403e7f479574a03b19a4b29, type: 3}
