%YAML 1.1
%TAG !u! tag:unity3d.com,2011:
--- !u!1001 &5595863062396686228
PrefabInstance:
  m_ObjectHideFlags: 0
  serializedVersion: 2
  m_Modification:
    m_TransformParent: {fileID: 0}
    m_Modifications:
    - target: {fileID: 7407142694332212814, guid: af2ec2a2d5f07294195001cd576486e6,
        type: 3}
      propertyPath: m_text
      value: BAM!!
      objectReference: {fileID: 0}
    - target: {fileID: 4511270376741052278, guid: af2ec2a2d5f07294195001cd576486e6,
        type: 3}
      propertyPath: m_Name
      value: Intro Text Particle Variant 1
      objectReference: {fileID: 0}
    - target: {fileID: 8631470428044951280, guid: af2ec2a2d5f07294195001cd576486e6,
        type: 3}
      propertyPath: m_LocalPosition.x
      value: 0
      objectReference: {fileID: 0}
    - target: {fileID: 8631470428044951280, guid: af2ec2a2d5f07294195001cd576486e6,
        type: 3}
      propertyPath: m_LocalPosition.y
      value: 0
      objectReference: {fileID: 0}
    - target: {fileID: 8631470428044951280, guid: af2ec2a2d5f07294195001cd576486e6,
        type: 3}
      propertyPath: m_LocalPosition.z
      value: 0
      objectReference: {fileID: 0}
    - target: {fileID: 8631470428044951280, guid: af2ec2a2d5f07294195001cd576486e6,
        type: 3}
      propertyPath: m_LocalRotation.x
      value: 0
      objectReference: {fileID: 0}
    - target: {fileID: 8631470428044951280, guid: af2ec2a2d5f07294195001cd576486e6,
        type: 3}
      propertyPath: m_LocalRotation.y
      value: 0
      objectReference: {fileID: 0}
    - target: {fileID: 8631470428044951280, guid: af2ec2a2d5f07294195001cd576486e6,
        type: 3}
      propertyPath: m_LocalRotation.z
      value: 0
      objectReference: {fileID: 0}
    - target: {fileID: 8631470428044951280, guid: af2ec2a2d5f07294195001cd576486e6,
        type: 3}
      propertyPath: m_LocalRotation.w
      value: 1
      objectReference: {fileID: 0}
    - target: {fileID: 8631470428044951280, guid: af2ec2a2d5f07294195001cd576486e6,
        type: 3}
      propertyPath: m_RootOrder
      value: 0
      objectReference: {fileID: 0}
    - target: {fileID: 8631470428044951280, guid: af2ec2a2d5f07294195001cd576486e6,
        type: 3}
      propertyPath: m_LocalEulerAnglesHint.x
      value: 0
      objectReference: {fileID: 0}
    - target: {fileID: 8631470428044951280, guid: af2ec2a2d5f07294195001cd576486e6,
        type: 3}
      propertyPath: m_LocalEulerAnglesHint.y
      value: 0
      objectReference: {fileID: 0}
    - target: {fileID: 8631470428044951280, guid: af2ec2a2d5f07294195001cd576486e6,
        type: 3}
      propertyPath: m_LocalEulerAnglesHint.z
      value: 0
      objectReference: {fileID: 0}
    - target: {fileID: 8888556177828032663, guid: af2ec2a2d5f07294195001cd576486e6,
        type: 3}
      propertyPath: m_Mesh
      value: 
      objectReference: {fileID: 0}
    - target: {fileID: 298598855970865544, guid: af2ec2a2d5f07294195001cd576486e6,
        type: 3}
      propertyPath: m_text
      value: BAM!!
      objectReference: {fileID: 0}
    - target: {fileID: 298598855970865544, guid: af2ec2a2d5f07294195001cd576486e6,
        type: 3}
      propertyPath: m_textInfo.characterCount
      value: 5
      objectReference: {fileID: 0}
    m_RemovedComponents: []
  m_SourcePrefab: {fileID: 100100000, guid: af2ec2a2d5f07294195001cd576486e6, type: 3}
