%YAML 1.1
%TAG !u! tag:unity3d.com,2011:
--- !u!1001 &1566263095571754534
PrefabInstance:
  m_ObjectHideFlags: 0
  serializedVersion: 2
  m_Modification:
    m_TransformParent: {fileID: 0}
    m_Modifications:
    - target: {fileID: 4049633927693738433, guid: fee42391a4f1eca4faa390dd326b2ec1,
        type: 3}
      propertyPath: m_Name
      value: district_002
      objectReference: {fileID: 0}
    - target: {fileID: 449622212097716538, guid: fee42391a4f1eca4faa390dd326b2ec1,
        type: 3}
      propertyPath: m_LocalPosition.x
      value: 0
      objectReference: {fileID: 0}
    - target: {fileID: 449622212097716538, guid: fee42391a4f1eca4faa390dd326b2ec1,
        type: 3}
      propertyPath: m_LocalPosition.y
      value: 0
      objectReference: {fileID: 0}
    - target: {fileID: 449622212097716538, guid: fee42391a4f1eca4faa390dd326b2ec1,
        type: 3}
      propertyPath: m_LocalPosition.z
      value: 0
      objectReference: {fileID: 0}
    - target: {fileID: 449622212097716538, guid: fee42391a4f1eca4faa390dd326b2ec1,
        type: 3}
      propertyPath: m_LocalRotation.x
      value: 0
      objectReference: {fileID: 0}
    - target: {fileID: 449622212097716538, guid: fee42391a4f1eca4faa390dd326b2ec1,
        type: 3}
      propertyPath: m_LocalRotation.y
      value: 0
      objectReference: {fileID: 0}
    - target: {fileID: 449622212097716538, guid: fee42391a4f1eca4faa390dd326b2ec1,
        type: 3}
      propertyPath: m_LocalRotation.z
      value: 0
      objectReference: {fileID: 0}
    - target: {fileID: 449622212097716538, guid: fee42391a4f1eca4faa390dd326b2ec1,
        type: 3}
      propertyPath: m_LocalRotation.w
      value: 1
      objectReference: {fileID: 0}
    - target: {fileID: 449622212097716538, guid: fee42391a4f1eca4faa390dd326b2ec1,
        type: 3}
      propertyPath: m_RootOrder
      value: 0
      objectReference: {fileID: 0}
    - target: {fileID: 449622212097716538, guid: fee42391a4f1eca4faa390dd326b2ec1,
        type: 3}
      propertyPath: m_LocalEulerAnglesHint.x
      value: 0
      objectReference: {fileID: 0}
    - target: {fileID: 449622212097716538, guid: fee42391a4f1eca4faa390dd326b2ec1,
        type: 3}
      propertyPath: m_LocalEulerAnglesHint.y
      value: 0
      objectReference: {fileID: 0}
    - target: {fileID: 449622212097716538, guid: fee42391a4f1eca4faa390dd326b2ec1,
        type: 3}
      propertyPath: m_LocalEulerAnglesHint.z
      value: 0
      objectReference: {fileID: 0}
    - target: {fileID: 449622212097716538, guid: fee42391a4f1eca4faa390dd326b2ec1,
        type: 3}
      propertyPath: m_AnchoredPosition.x
      value: 144
      objectReference: {fileID: 0}
    - target: {fileID: 449622212097716538, guid: fee42391a4f1eca4faa390dd326b2ec1,
        type: 3}
      propertyPath: m_AnchoredPosition.y
      value: 2247
      objectReference: {fileID: 0}
    - target: {fileID: 449622212097716538, guid: fee42391a4f1eca4faa390dd326b2ec1,
        type: 3}
      propertyPath: m_SizeDelta.x
      value: 100
      objectReference: {fileID: 0}
    - target: {fileID: 449622212097716538, guid: fee42391a4f1eca4faa390dd326b2ec1,
        type: 3}
      propertyPath: m_SizeDelta.y
      value: 100
      objectReference: {fileID: 0}
    - target: {fileID: 449622212097716538, guid: fee42391a4f1eca4faa390dd326b2ec1,
        type: 3}
      propertyPath: m_AnchorMin.x
      value: 0.5
      objectReference: {fileID: 0}
    - target: {fileID: 449622212097716538, guid: fee42391a4f1eca4faa390dd326b2ec1,
        type: 3}
      propertyPath: m_AnchorMin.y
      value: 0.5
      objectReference: {fileID: 0}
    - target: {fileID: 449622212097716538, guid: fee42391a4f1eca4faa390dd326b2ec1,
        type: 3}
      propertyPath: m_AnchorMax.x
      value: 0.5
      objectReference: {fileID: 0}
    - target: {fileID: 449622212097716538, guid: fee42391a4f1eca4faa390dd326b2ec1,
        type: 3}
      propertyPath: m_AnchorMax.y
      value: 0.5
      objectReference: {fileID: 0}
    - target: {fileID: 449622212097716538, guid: fee42391a4f1eca4faa390dd326b2ec1,
        type: 3}
      propertyPath: m_Pivot.x
      value: 0.5
      objectReference: {fileID: 0}
    - target: {fileID: 449622212097716538, guid: fee42391a4f1eca4faa390dd326b2ec1,
        type: 3}
      propertyPath: m_Pivot.y
      value: 0.5
      objectReference: {fileID: 0}
    - target: {fileID: 8790417615832458436, guid: fee42391a4f1eca4faa390dd326b2ec1,
        type: 3}
      propertyPath: assetName
      value: Spine District 2
      objectReference: {fileID: 0}
    m_RemovedComponents: []
  m_SourcePrefab: {fileID: 100100000, guid: fee42391a4f1eca4faa390dd326b2ec1, type: 3}
--- !u!224 &5857955079812494423 stripped
RectTransform:
  m_CorrespondingSourceObject: {fileID: 4969679200847960689, guid: fee42391a4f1eca4faa390dd326b2ec1,
    type: 3}
  m_PrefabInstance: {fileID: 1566263095571754534}
  m_PrefabAsset: {fileID: 0}
--- !u!1001 &2379951461390950815
PrefabInstance:
  m_ObjectHideFlags: 0
  serializedVersion: 2
  m_Modification:
    m_TransformParent: {fileID: 5857955079812494423}
    m_Modifications:
    - target: {fileID: 585695585671573673, guid: 9e33e0032ce149242a76afa76f7eb5c4,
        type: 3}
      propertyPath: m_Name
      value: Spine District 2
      objectReference: {fileID: 0}
    - target: {fileID: 857706409348615828, guid: 9e33e0032ce149242a76afa76f7eb5c4,
        type: 3}
      propertyPath: m_LocalPosition.x
      value: 0
      objectReference: {fileID: 0}
    - target: {fileID: 857706409348615828, guid: 9e33e0032ce149242a76afa76f7eb5c4,
        type: 3}
      propertyPath: m_LocalPosition.y
      value: 0
      objectReference: {fileID: 0}
    - target: {fileID: 857706409348615828, guid: 9e33e0032ce149242a76afa76f7eb5c4,
        type: 3}
      propertyPath: m_LocalPosition.z
      value: 0
      objectReference: {fileID: 0}
    - target: {fileID: 857706409348615828, guid: 9e33e0032ce149242a76afa76f7eb5c4,
        type: 3}
      propertyPath: m_LocalRotation.x
      value: 0
      objectReference: {fileID: 0}
    - target: {fileID: 857706409348615828, guid: 9e33e0032ce149242a76afa76f7eb5c4,
        type: 3}
      propertyPath: m_LocalRotation.y
      value: 0
      objectReference: {fileID: 0}
    - target: {fileID: 857706409348615828, guid: 9e33e0032ce149242a76afa76f7eb5c4,
        type: 3}
      propertyPath: m_LocalRotation.z
      value: 0
      objectReference: {fileID: 0}
    - target: {fileID: 857706409348615828, guid: 9e33e0032ce149242a76afa76f7eb5c4,
        type: 3}
      propertyPath: m_LocalRotation.w
      value: 1
      objectReference: {fileID: 0}
    - target: {fileID: 857706409348615828, guid: 9e33e0032ce149242a76afa76f7eb5c4,
        type: 3}
      propertyPath: m_RootOrder
      value: 0
      objectReference: {fileID: 0}
    - target: {fileID: 857706409348615828, guid: 9e33e0032ce149242a76afa76f7eb5c4,
        type: 3}
      propertyPath: m_LocalEulerAnglesHint.x
      value: 0
      objectReference: {fileID: 0}
    - target: {fileID: 857706409348615828, guid: 9e33e0032ce149242a76afa76f7eb5c4,
        type: 3}
      propertyPath: m_LocalEulerAnglesHint.y
      value: 0
      objectReference: {fileID: 0}
    - target: {fileID: 857706409348615828, guid: 9e33e0032ce149242a76afa76f7eb5c4,
        type: 3}
      propertyPath: m_LocalEulerAnglesHint.z
      value: 0
      objectReference: {fileID: 0}
    - target: {fileID: 857706409348615828, guid: 9e33e0032ce149242a76afa76f7eb5c4,
        type: 3}
      propertyPath: m_AnchoredPosition.x
      value: 0
      objectReference: {fileID: 0}
    - target: {fileID: 857706409348615828, guid: 9e33e0032ce149242a76afa76f7eb5c4,
        type: 3}
      propertyPath: m_AnchoredPosition.y
      value: 0
      objectReference: {fileID: 0}
    - target: {fileID: 857706409348615828, guid: 9e33e0032ce149242a76afa76f7eb5c4,
        type: 3}
      propertyPath: m_SizeDelta.x
      value: 100
      objectReference: {fileID: 0}
    - target: {fileID: 857706409348615828, guid: 9e33e0032ce149242a76afa76f7eb5c4,
        type: 3}
      propertyPath: m_SizeDelta.y
      value: 100
      objectReference: {fileID: 0}
    - target: {fileID: 857706409348615828, guid: 9e33e0032ce149242a76afa76f7eb5c4,
        type: 3}
      propertyPath: m_AnchorMin.x
      value: 0.5
      objectReference: {fileID: 0}
    - target: {fileID: 857706409348615828, guid: 9e33e0032ce149242a76afa76f7eb5c4,
        type: 3}
      propertyPath: m_AnchorMin.y
      value: 0.5
      objectReference: {fileID: 0}
    - target: {fileID: 857706409348615828, guid: 9e33e0032ce149242a76afa76f7eb5c4,
        type: 3}
      propertyPath: m_AnchorMax.x
      value: 0.5
      objectReference: {fileID: 0}
    - target: {fileID: 857706409348615828, guid: 9e33e0032ce149242a76afa76f7eb5c4,
        type: 3}
      propertyPath: m_AnchorMax.y
      value: 0.5
      objectReference: {fileID: 0}
    - target: {fileID: 857706409348615828, guid: 9e33e0032ce149242a76afa76f7eb5c4,
        type: 3}
      propertyPath: m_Pivot.x
      value: 0.5
      objectReference: {fileID: 0}
    - target: {fileID: 857706409348615828, guid: 9e33e0032ce149242a76afa76f7eb5c4,
        type: 3}
      propertyPath: m_Pivot.y
      value: 0.5
      objectReference: {fileID: 0}
    m_RemovedComponents: []
  m_SourcePrefab: {fileID: 100100000, guid: 9e33e0032ce149242a76afa76f7eb5c4, type: 3}
