%YAML 1.1
%TAG !u! tag:unity3d.com,2011:
--- !u!114 &11400000
MonoBehaviour:
  m_ObjectHideFlags: 0
  m_CorrespondingSourceObject: {fileID: 0}
  m_PrefabInstance: {fileID: 0}
  m_PrefabAsset: {fileID: 0}
  m_GameObject: {fileID: 0}
  m_Enabled: 1
  m_EditorHideFlags: 0
  m_Script: {fileID: 11500000, guid: dff78f078ceea8548b9188b99eea937d, type: 3}
  m_Name: heirloomUpg_0175
  m_EditorClassIdentifier: 
  Id: heirloomUpg_0175
  costBase: 1
  costExponent: 129
  transactionType: Heirloom
  benefitTarget: district_003
  benefitType: LevelUp
  benefitModifier: 25
  targetCount: 20
